step 0
step = 1
Max quantity: Element: ('C', 9)
Min quantity: Element: ('V', 1)
Difference is 8.
step = 2
Max quantity: Element: ('C', 15)
Min quantity: Element: ('O', 3)
Difference is 12.
step = 3
Max quantity: Element: ('H', 21)
Min quantity: Element: ('O', 4)
Difference is 17.
step = 4
Max quantity: Element: ('H', 45)
Min quantity: Element: ('O', 6)
Difference is 39.
step = 5
Max quantity: Element: ('P', 95)
Min quantity: Element: ('O', 14)
Difference is 81.
step = 6
Max quantity: Element: ('P', 185)
Min quantity: Element: ('O', 34)
Difference is 151.
step = 7
Max quantity: Element: ('N', 365)
Min quantity: Element: ('O', 69)
Difference is 296.
step = 8
Max quantity: Element: ('N', 746)
Min quantity: Element: ('O', 133)
Difference is 613.
step = 9
Max quantity: Element: ('N', 1516)
Min quantity: Element: ('O', 259)
Difference is 1257.
step = 10
Max quantity: Element: ('N', 3108)
Min quantity: Element: ('O', 506)
Difference is 2602.
step = 11
Max quantity: Element: ('N', 6261)
Min quantity: Element: ('O', 974)
Difference is 5287.
step = 12
Max quantity: Element: ('N', 12603)
Min quantity: Element: ('O', 1898)
Difference is 10705.
step = 13
Max quantity: Element: ('N', 25278)
Min quantity: Element: ('O', 3722)
Difference is 21556.
step = 14
Max quantity: Element: ('N', 50668)
Min quantity: Element: ('O', 7306)
Difference is 43362.
step = 15
Max quantity: Element: ('N', 101491)
Min quantity: Element: ('O', 14415)
Difference is 87076.
step = 16
Max quantity: Element: ('N', 203179)
Min quantity: Element: ('O', 28581)
Difference is 174598.
step = 17
Max quantity: Element: ('N', 406658)
Min quantity: Element: ('O', 56801)
Difference is 349857.
step = 18
Max quantity: Element: ('N', 813823)
Min quantity: Element: ('O', 113051)
Difference is 700772.
step = 19
Max quantity: Element: ('N', 1627526)
Min quantity: Element: ('O', 225505)
Difference is 1402021.
step = 20
Max quantity: Element: ('N', 3255441)
Min quantity: Element: ('O', 450014)
Difference is 2805427.
step = 21
Max quantity: Element: ('N', 6510214)
Min quantity: Element: ('O', 898168)
Difference is 5612046.
step = 22
Max quantity: Element: ('N', 13019398)
Min quantity: Element: ('O', 1793145)
Difference is 11226253.
step = 23
Max quantity: Element: ('N', 26035864)
Min quantity: Element: ('O', 3581607)
Difference is 22454257.
step = 24
Max quantity: Element: ('N', 52067596)
Min quantity: Element: ('O', 7156306)
Difference is 44911290.
step = 25
Max quantity: Element: ('N', 104125508)
Min quantity: Element: ('O', 14304798)
Difference is 89820710.
step = 26
Max quantity: Element: ('N', 208238943)
Min quantity: Element: ('O', 28601682)
Difference is 179637261.
step = 27
Max quantity: Element: ('N', 416454436)
Min quantity: Element: ('O', 57199401)
Difference is 359255035.
step = 28
Max quantity: Element: ('N', 832887283)
Min quantity: Element: ('O', 114397503)
Difference is 718489780.
step = 29
Max quantity: Element: ('N', 1665741342)
Min quantity: Element: ('O', 228804432)
Difference is 1436936910.
step = 30
Max quantity: Element: ('N', 3331468342)
Min quantity: Element: ('O', 457623616)
Difference is 2873844726.
step = 31
Max quantity: Element: ('N', 6662927967)
Min quantity: Element: ('O', 915278508)
Difference is 5747649459.
step = 32
Max quantity: Element: ('N', 13325906560)
Min quantity: Element: ('O', 1830596222)
Difference is 11495310338.
step = 33
Max quantity: Element: ('N', 26651897672)
Min quantity: Element: ('O', 3661267119)
Difference is 22990630553.
step = 34
Max quantity: Element: ('N', 53304075383)
Min quantity: Element: ('O', 7322621039)
Difference is 45981454344.
step = 35
Max quantity: Element: ('N', 106608599177)
Min quantity: Element: ('O', 14645390666)
Difference is 91963208511.
step = 36
Max quantity: Element: ('N', 213218294883)
Min quantity: Element: ('O', 29290955182)
Difference is 183927339701.
step = 37
Max quantity: Element: ('N', 426438456596)
Min quantity: Element: ('O', 58582218337)
Difference is 367856238259.
step = 38
Max quantity: Element: ('N', 852880745466)
Min quantity: Element: ('O', 117164817684)
Difference is 735715927782.
step = 39
Max quantity: Element: ('N', 1705767837962)
Min quantity: Element: ('O', 234330327561)
Difference is 1471437510401.
step = 40
Max quantity: Element: ('N', 3411547316650)
Min quantity: Element: ('O', 468661394477)
Difference is 2942885922173.
